{
  "result": {
    "content": [
      {
        "text": "{\"items\":[{\"ontologyId\":\"reified-bnode\",\"type\":[\"class\",\"entity\"],\"iri\":\"http://example.com/reified-bnode#cell_part\",\"curie\":\"cell_part\",\"label\":[\"cell_part\"],\"definition\":[],\"isObsolete\":false,\"directAncestor\":[],\"directParent\":[],\"hierarchicalParent\":[]},{\"ontologyId\":\"reified-bnode\",\"type\":[\"class\",\"entity\"],\"iri\":\"http://example.com/reified-bnode#cell\",\"curie\":\"cell\",\"label\":[\"cell\"],\"definition\":[],\"isObsolete\":false,\"directAncestor\":[],\"directParent\":[],\"hierarchicalParent\":[]},{\"ontologyId\":\"duo\",\"type\":[\"class\",\"entity\"],\"iri\":\"http://purl.obolibrary.org/obo/IAO_0000605\",\"curie\":\"IAO:0000605\",\"label\":[\"abbreviation textual entity\"],\"definition\":[\"A textual entity listing abbreviations and their expansions that are used in a document.\"],\"isObsolete\":false,\"directAncestor\":[{\"iri\":\"http://purl.obolibrary.org/obo/BFO_0000001\",\"definedBy\":[],\"label\":[\"entity\"]},{\"iri\":\"http://purl.obolibrary.org/obo/BFO_0000002\",\"definedBy\":[],\"label\":[\"continuant\"]},{\"iri\":\"http://purl.obolibrary.org/obo/BFO_0000031\",\"definedBy\":[],\"label\":[\"generically dependent continuant\"]},{\"iri\":\"http://purl.obolibrary.org/obo/IAO_0000030\",\"definedBy\":[],\"label\":[\"information content entity\"]},{\"iri\":\"http://purl.obolibrary.org/obo/IAO_0000300\",\"definedBy\":[],\"label\":[\"textual entity\"]}],\"directParent\":[{\"iri\":\"http://purl.obolibrary.org/obo/IAO_0000300\",\"definedBy\":[],\"label\":[\"textual entity\"]}],\"hierarchicalParent\":[{\"iri\":\"http://purl.obolibrary.org/obo/IAO_0000300\",\"definedBy\":[],\"label\":[\"textual entity\"]}]},{\"ontologyId\":\"duo\",\"type\":[\"class\",\"entity\"],\"iri\":\"http://purl.obolibrary.org/obo/BFO_0000030\",\"curie\":\"BFO:0000030\",\"label\":[\"object\"],\"definition\":[],\"isObsolete\":false,\"directAncestor\":[{\"iri\":\"http://purl.obolibrary.org/obo/BFO_0000001\",\"definedBy\":[],\"label\":[\"entity\"]},{\"iri\":\"http://purl.obolibrary.org/obo/BFO_0000002\",\"definedBy\":[],\"label\":[\"continuant\"]},{\"iri\":\"http://purl.obolibrary.org/obo/BFO_0000004\",\"definedBy\":[],\"label\":[\"independent continuant\"]},{\"iri\":\"http://purl.obolibrary.org/obo/BFO_0000040\",\"definedBy\":[],\"label\":[\"material entity\"]}],\"directParent\":[{\"iri\":\"http://purl.obolibrary.org/obo/BFO_0000040\",\"definedBy\":[],\"label\":[\"material entity\"]}],\"hierarchicalParent\":[{\"iri\":\"http://purl.obolibrary.org/obo/BFO_0000040\",\"definedBy\":[],\"label\":[\"material entity\"]}]},{\"ontologyId\":\"duo\",\"type\":[\"class\",\"entity\"],\"iri\":\"http://purl.obolibrary.org/obo/BFO_0000027\",\"curie\":\"BFO:0000027\",\"label\":[\"object aggregate\"],\"definition\":[],\"isObsolete\":false,\"directAncestor\":[{\"iri\":\"http://purl.obolibrary.org/obo/BFO_0000001\",\"definedBy\":[],\"label\":[\"entity\"]},{\"iri\":\"http://purl.obolibrary.org/obo/BFO_0000002\",\"definedBy\":[],\"label\":[\"continuant\"]},{\"iri\":\"http://purl.obolibrary.org/obo/BFO_0000004\",\"definedBy\":[],\"label\":[\"independent continuant\"]},{\"iri\":\"http://purl.obolibrary.org/obo/BFO_0000040\",\"definedBy\":[],\"label\":[\"material entity\"]}],\"directParent\":[{\"iri\":\"http://purl.obolibrary.org/obo/BFO_0000040\",\"definedBy\":[],\"label\":[\"material entity\"]}],\"hierarchicalParent\":[{\"iri\":\"http://purl.obolibrary.org/obo/BFO_0000040\",\"definedBy\":[],\"label\":[\"material entity\"]}]},{\"ontologyId\":\"duo\",\"type\":[\"class\",\"entity\"],\"iri\":\"http://purl.obolibrary.org/obo/IAO_0000584\",\"curie\":\"IAO:0000584\",\"label\":[\"time sampled measurement data set\"],\"definition\":[\"A data set that is an aggregate of data recording some measurement at a number of time points. The time series data set is an ordered list of pairs of time measurement data and the corresponding measurement data acquired at that time.\"],\"isObsolete\":false,\"directAncestor\":[{\"iri\":\"http://purl.obolibrary.org/obo/BFO_0000001\",\"definedBy\":[],\"label\":[\"entity\"]},{\"iri\":\"http://purl.obolibrary.org/obo/BFO_0000002\",\"definedBy\":[],\"label\":[\"continuant\"]},{\"iri\":\"http://purl.obolibrary.org/obo/BFO_0000031\",\"definedBy\":[],\"label\":[\"generically dependent continuant\"]},{\"iri\":\"http://purl.obolibrary.org/obo/IAO_0000027\",\"definedBy\":[],\"label\":[\"data item\"]},{\"iri\":\"http://purl.obolibrary.org/obo/IAO_0000030\",\"definedBy\":[],\"label\":[\"information content entity\"]},{\"iri\":\"http://purl.obolibrary.org/obo/IAO_0000100\",\"definedBy\":[],\"label\":[\"data set\"]}],\"directParent\":[{\"iri\":\"http://purl.obolibrary.org/obo/IAO_0000100\",\"definedBy\":[],\"label\":[\"data set\"]}],\"hierarchicalParent\":[{\"iri\":\"http://purl.obolibrary.org/obo/IAO_0000100\",\"definedBy\":[],\"label\":[\"data set\"]}]},{\"ontologyId\":\"duo\",\"type\":[\"class\",\"entity\"],\"iri\":\"http://purl.obolibrary.org/obo/BFO_0000015\",\"curie\":\"BFO:0000015\",\"label\":[\"process\"],\"definition\":[\"p is a process = Def. p is an occurrent that has temporal proper parts and for some time t, p s-depends_on some material entity at t. (axiom label in BFO2 Reference: [083-003])\"],\"isObsolete\":false,\"directAncestor\":[{\"iri\":\"http://purl.obolibrary.org/obo/BFO_0000001\",\"definedBy\":[],\"label\":[\"entity\"]},{\"iri\":\"http://purl.obolibrary.org/obo/BFO_0000003\",\"definedBy\":[],\"label\":[\"occurrent\"]}],\"directParent\":[{\"iri\":\"http://purl.obolibrary.org/obo/BFO_0000003\",\"definedBy\":[],\"label\":[\"occurrent\"]}],\"hierarchicalParent\":[{\"iri\":\"http://purl.obolibrary.org/obo/BFO_0000003\",\"definedBy\":[],\"label\":[\"occurrent\"]}]},{\"ontologyId\":\"duo\",\"type\":[\"class\",\"entity\"],\"iri\":\"http://purl.obolibrary.org/obo/BFO_0000040\",\"curie\":\"BFO:0000040\",\"label\":[\"material entity\"],\"definition\":[\"An independent continuant that is spatially extended whose identity is independent of that of other entities and can be maintained through time.\"],\"isObsolete\":false,\"directAncestor\":[{\"iri\":\"http://purl.obolibrary.org/obo/BFO_0000001\",\"definedBy\":[],\"label\":[\"entity\"]},{\"iri\":\"http://purl.obolibrary.org/obo/BFO_0000002\",\"definedBy\":[],\"label\":[\"continuant\"]},{\"iri\":\"http://purl.obolibrary.org/obo/BFO_0000004\",\"definedBy\":[],\"label\":[\"independent continuant\"]}],\"directParent\":[{\"iri\":\"http://purl.obolibrary.org/obo/BFO_0000004\",\"definedBy\":[],\"label\":[\"independent continuant\"]}],\"hierarchicalParent\":[{\"iri\":\"http://purl.obolibrary.org/obo/BFO_0000004\",\"definedBy\":[],\"label\":[\"independent continuant\"]}]},{\"ontologyId\":\"duo\",\"type\":[\"class\",\"entity\"],\"iri\":\"http://purl.obolibrary.org/obo/BFO_0000011\",\"curie\":\"BFO:0000011\",\"label\":[\"spatiotemporal region\"],\"definition\":[],\"isObsolete\":false,\"directAncestor\":[{\"iri\":\"http://purl.obolibrary.org/obo/BFO_0000001\",\"definedBy\":[],\"label\":[\"entity\"]},{\"iri\":\"http://purl.obolibrary.org/obo/BFO_0000003\",\"definedBy\":[],\"label\":[\"occurrent\"]}],\"directParent\":[{\"iri\":\"http://purl.obolibrary.org/obo/BFO_0000003\",\"definedBy\":[],\"label\":[\"occurrent\"]}],\"hierarchicalParent\":[{\"iri\":\"http://purl.obolibrary.org/obo/BFO_0000003\",\"definedBy\":[],\"label\":[\"occurrent\"]}]},{\"ontologyId\":\"duo\",\"type\":[\"class\",\"entity\"],\"iri\":\"http://purl.obolibrary.org/obo/BFO_0000016\",\"curie\":\"BFO:0000016\",\"label\":[\"disposition\"],\"definition\":[],\"isObsolete\":false,\"directAncestor\":[{\"iri\":\"http://purl.obolibrary.org/obo/BFO_0000001\",\"definedBy\":[],\"label\":[\"entity\"]},{\"iri\":\"http://purl.obolibrary.org/obo/BFO_0000002\",\"definedBy\":[],\"label\":[\"continuant\"]},{\"iri\":\"http://purl.obolibrary.org/obo/BFO_0000017\",\"definedBy\":[],\"label\":[\"realizable entity\"]},{\"iri\":\"http://purl.obolibrary.org/obo/BFO_0000020\",\"definedBy\":[],\"label\":[\"specifically dependent continuant\"]}],\"directParent\":[{\"iri\":\"http://purl.obolibrary.org/obo/BFO_0000017\",\"definedBy\":[],\"label\":[\"realizable entity\"]}],\"hierarchicalParent\":[{\"iri\":\"http://purl.obolibrary.org/obo/BFO_0000017\",\"definedBy\":[],\"label\":[\"realizable entity\"]}]}],\"pageNum\":0,\"pageSize\":10,\"totalElements\":12,\"totalPages\":2}",
        "type": "text"
      }
    ]
  }
}