{
  "result": {
    "content": [
      {
        "text": "{\"items\":[{\"ontologyId\":\"duo\",\"type\":[\"class\",\"entity\"],\"iri\":\"http://purl.obolibrary.org/obo/DUO_0000036\",\"curie\":\"DUO:0000036\",\"label\":[\"research control\"],\"definition\":[\"An investigation concerning use of data as reference or control material.\"],\"isObsolete\":false,\"directAncestor\":[{\"iri\":\"http://purl.obolibrary.org/obo/BFO_0000001\",\"definedBy\":[],\"label\":[\"entity\"]},{\"iri\":\"http://purl.obolibrary.org/obo/BFO_0000003\",\"definedBy\":[],\"label\":[\"occurrent\"]},{\"iri\":\"http://purl.obolibrary.org/obo/BFO_0000015\",\"definedBy\":[],\"label\":[\"process\"]},{\"iri\":\"http://purl.obolibrary.org/obo/OBI_0000011\",\"definedBy\":[],\"label\":[\"planned process\"]},{\"iri\":\"http://purl.obolibrary.org/obo/OBI_0000066\",\"definedBy\":[],\"label\":[\"investigation\"]}],\"directParent\":[{\"iri\":\"http://purl.obolibrary.org/obo/OBI_0000066\",\"definedBy\":[],\"label\":[\"investigation\"]}],\"hierarchicalParent\":[{\"iri\":\"http://purl.obolibrary.org/obo/OBI_0000066\",\"definedBy\":[],\"label\":[\"investigation\"]}]},{\"ontologyId\":\"duo\",\"type\":[\"class\",\"entity\"],\"iri\":\"http://purl.obolibrary.org/obo/DUO_0000012\",\"curie\":\"DUO:0000012\",\"label\":[\"research specific restrictions\"],\"definition\":[\"This data use modifier indicates that use is limited to studies of a certain research type.\"],\"isObsolete\":false,\"directAncestor\":[{\"iri\":\"http://purl.obolibrary.org/obo/BFO_0000001\",\"definedBy\":[],\"label\":[\"entity\"]},{\"iri\":\"http://purl.obolibrary.org/obo/BFO_0000002\",\"definedBy\":[],\"label\":[\"continuant\"]},{\"iri\":\"http://purl.obolibrary.org/obo/BFO_0000031\",\"definedBy\":[],\"label\":[\"generically dependent continuant\"]},{\"iri\":\"http://purl.obolibrary.org/obo/DUO_0000017\",\"definedBy\":[\"duo\"],\"label\":[\"data use modifier\"]},{\"iri\":\"http://purl.obolibrary.org/obo/IAO_0000027\",\"definedBy\":[],\"label\":[\"data item\"]},{\"iri\":\"http://purl.obolibrary.org/obo/IAO_0000030\",\"definedBy\":[],\"label\":[\"information content entity\"]}],\"directParent\":[{\"iri\":\"http://purl.obolibrary.org/obo/DUO_0000017\",\"definedBy\":[\"duo\"],\"label\":[\"data use modifier\"]}],\"hierarchicalParent\":[{\"iri\":\"http://purl.obolibrary.org/obo/DUO_0000017\",\"definedBy\":[\"duo\"],\"label\":[\"data use modifier\"]}]},{\"ontologyId\":\"duo\",\"type\":[\"class\",\"entity\"],\"iri\":\"http://purl.obolibrary.org/obo/DUO_0000037\",\"curie\":\"DUO:0000037\",\"label\":[\"biomedical research\"],\"definition\":[\"An investigation concerning health, medical, or biomedical research.\"],\"isObsolete\":false,\"directAncestor\":[{\"iri\":\"http://purl.obolibrary.org/obo/BFO_0000001\",\"definedBy\":[],\"label\":[\"entity\"]},{\"iri\":\"http://purl.obolibrary.org/obo/BFO_0000003\",\"definedBy\":[],\"label\":[\"occurrent\"]},{\"iri\":\"http://purl.obolibrary.org/obo/BFO_0000015\",\"definedBy\":[],\"label\":[\"process\"]},{\"iri\":\"http://purl.obolibrary.org/obo/OBI_0000011\",\"definedBy\":[],\"label\":[\"planned process\"]},{\"iri\":\"http://purl.obolibrary.org/obo/OBI_0000066\",\"definedBy\":[],\"label\":[\"investigation\"]}],\"directParent\":[{\"iri\":\"http://purl.obolibrary.org/obo/OBI_0000066\",\"definedBy\":[],\"label\":[\"investigation\"]}],\"hierarchicalParent\":[{\"iri\":\"http://purl.obolibrary.org/obo/OBI_0000066\",\"definedBy\":[],\"label\":[\"investigation\"]}]},{\"ontologyId\":\"duo\",\"type\":[\"class\",\"entity\"],\"iri\":\"http://purl.obolibrary.org/obo/DUO_0000038\",\"curie\":\"DUO:0000038\",\"label\":[\"genetic research\"],\"definition\":[\"Biomedical research concerning genetics (i.e., the study of genes, genetic variations and heredity).\"],\"isObsolete\":false,\"directAncestor\":[{\"iri\":\"http://purl.obolibrary.org/obo/BFO_0000001\",\"definedBy\":[],\"label\":[\"entity\"]},{\"iri\":\"http://purl.obolibrary.org/obo/BFO_0000003\",\"definedBy\":[],\"label\":[\"occurrent\"]},{\"iri\":\"http://purl.obolibrary.org/obo/BFO_0000015\",\"definedBy\":[],\"label\":[\"process\"]},{\"iri\":\"http://purl.obolibrary.org/obo/DUO_0000037\",\"definedBy\":[\"duo\"],\"label\":[\"biomedical research\"]},{\"iri\":\"http://purl.obolibrary.org/obo/OBI_0000011\",\"definedBy\":[],\"label\":[\"planned process\"]},{\"iri\":\"http://purl.obolibrary.org/obo/OBI_0000066\",\"definedBy\":[],\"label\":[\"investigation\"]}],\"directParent\":[{\"iri\":\"http://purl.obolibrary.org/obo/DUO_0000037\",\"definedBy\":[\"duo\"],\"label\":[\"biomedical research\"]}],\"hierarchicalParent\":[{\"iri\":\"http://purl.obolibrary.org/obo/DUO_0000037\",\"definedBy\":[\"duo\"],\"label\":[\"biomedical research\"]}]},{\"ontologyId\":\"duo\",\"type\":[\"class\",\"entity\"],\"iri\":\"http://purl.obolibrary.org/obo/DUO_0000032\",\"curie\":\"DUO:0000032\",\"label\":[\"population research\"],\"definition\":[\"An investigation concerning a specific population group.\",\"Should be paired with the an ontology term representing this population (e.g., xxx).\"],\"isObsolete\":false,\"directAncestor\":[{\"iri\":\"http://purl.obolibrary.org/obo/BFO_0000001\",\"definedBy\":[],\"label\":[\"entity\"]},{\"iri\":\"http://purl.obolibrary.org/obo/BFO_0000003\",\"definedBy\":[],\"label\":[\"occurrent\"]},{\"iri\":\"http://purl.obolibrary.org/obo/BFO_0000015\",\"definedBy\":[],\"label\":[\"process\"]},{\"iri\":\"http://purl.obolibrary.org/obo/OBI_0000011\",\"definedBy\":[],\"label\":[\"planned process\"]},{\"iri\":\"http://purl.obolibrary.org/obo/OBI_0000066\",\"definedBy\":[],\"label\":[\"investigation\"]}],\"directParent\":[{\"iri\":\"http://purl.obolibrary.org/obo/OBI_0000066\",\"definedBy\":[],\"label\":[\"investigation\"]}],\"hierarchicalParent\":[{\"iri\":\"http://purl.obolibrary.org/obo/OBI_0000066\",\"definedBy\":[],\"label\":[\"investigation\"]}]},{\"ontologyId\":\"duo\",\"type\":[\"class\",\"entity\"],\"iri\":\"http://purl.obolibrary.org/obo/DUO_0000033\",\"curie\":\"DUO:0000033\",\"label\":[\"ancestry research\"],\"definition\":[\"An investigation concerning ancestry or population origins.\"],\"isObsolete\":false,\"directAncestor\":[{\"iri\":\"http://purl.obolibrary.org/obo/BFO_0000001\",\"definedBy\":[],\"label\":[\"entity\"]},{\"iri\":\"http://purl.obolibrary.org/obo/BFO_0000003\",\"definedBy\":[],\"label\":[\"occurrent\"]},{\"iri\":\"http://purl.obolibrary.org/obo/BFO_0000015\",\"definedBy\":[],\"label\":[\"process\"]},{\"iri\":\"http://purl.obolibrary.org/obo/OBI_0000011\",\"definedBy\":[],\"label\":[\"planned process\"]},{\"iri\":\"http://purl.obolibrary.org/obo/OBI_0000066\",\"definedBy\":[],\"label\":[\"investigation\"]}],\"directParent\":[{\"iri\":\"http://purl.obolibrary.org/obo/OBI_0000066\",\"definedBy\":[],\"label\":[\"investigation\"]}],\"hierarchicalParent\":[{\"iri\":\"http://purl.obolibrary.org/obo/OBI_0000066\",\"definedBy\":[],\"label\":[\"investigation\"]}]},{\"ontologyId\":\"duo\",\"type\":[\"class\",\"entity\"],\"iri\":\"http://purl.obolibrary.org/obo/DUO_0000040\",\"curie\":\"DUO:0000040\",\"label\":[\"disease category research\"],\"definition\":[\"Biomedical research research concerning specific disease/s\"],\"isObsolete\":false,\"directAncestor\":[{\"iri\":\"http://purl.obolibrary.org/obo/BFO_0000001\",\"definedBy\":[],\"label\":[\"entity\"]},{\"iri\":\"http://purl.obolibrary.org/obo/BFO_0000003\",\"definedBy\":[],\"label\":[\"occurrent\"]},{\"iri\":\"http://purl.obolibrary.org/obo/BFO_0000015\",\"definedBy\":[],\"label\":[\"process\"]},{\"iri\":\"http://purl.obolibrary.org/obo/DUO_0000037\",\"definedBy\":[\"duo\"],\"label\":[\"biomedical research\"]},{\"iri\":\"http://purl.obolibrary.org/obo/OBI_0000011\",\"definedBy\":[],\"label\":[\"planned process\"]},{\"iri\":\"http://purl.obolibrary.org/obo/OBI_0000066\",\"definedBy\":[],\"label\":[\"investigation\"]}],\"directParent\":[{\"iri\":\"http://purl.obolibrary.org/obo/DUO_0000037\",\"definedBy\":[\"duo\"],\"label\":[\"biomedical research\"]}],\"hierarchicalParent\":[{\"iri\":\"http://purl.obolibrary.org/obo/DUO_0000037\",\"definedBy\":[\"duo\"],\"label\":[\"biomedical research\"]}]},{\"ontologyId\":\"duo\",\"type\":[\"class\",\"entity\"],\"iri\":\"http://purl.obolibrary.org/obo/DUO_0000042\",\"curie\":\"DUO:0000042\",\"label\":[\"general research use\"],\"definition\":[\"This data use permission indicates that use is allowed for general research use for any research purpose.\",\"This includes but is not limited to: health/medical/biomedical purposes, fundamental biology research, the study of population origins or ancestry, statistical methods and algorithms development, and social-sciences research.\"],\"isObsolete\":false,\"directAncestor\":[{\"iri\":\"http://purl.obolibrary.org/obo/BFO_0000001\",\"definedBy\":[],\"label\":[\"entity\"]},{\"iri\":\"http://purl.obolibrary.org/obo/BFO_0000002\",\"definedBy\":[],\"label\":[\"continuant\"]},{\"iri\":\"http://purl.obolibrary.org/obo/BFO_0000031\",\"definedBy\":[],\"label\":[\"generically dependent continuant\"]},{\"iri\":\"http://purl.obolibrary.org/obo/DUO_0000001\",\"definedBy\":[\"duo\"],\"label\":[\"data use permission\"]},{\"iri\":\"http://purl.obolibrary.org/obo/IAO_0000027\",\"definedBy\":[],\"label\":[\"data item\"]},{\"iri\":\"http://purl.obolibrary.org/obo/IAO_0000030\",\"definedBy\":[],\"label\":[\"information content entity\"]}],\"directParent\":[{\"iri\":\"http://purl.obolibrary.org/obo/DUO_0000001\",\"definedBy\":[\"duo\"],\"label\":[\"data use permission\"]}],\"hierarchicalParent\":[{\"iri\":\"http://purl.obolibrary.org/obo/DUO_0000001\",\"definedBy\":[\"duo\"],\"label\":[\"data use permission\"]}]},{\"ontologyId\":\"duo\",\"type\":[\"class\",\"entity\"],\"iri\":\"http://purl.obolibrary.org/obo/DUO_0000039\",\"curie\":\"DUO:0000039\",\"label\":[\"drug development research\"],\"definition\":[\"Biomedical research concerning drug development.\"],\"isObsolete\":false,\"directAncestor\":[{\"iri\":\"http://purl.obolibrary.org/obo/BFO_0000001\",\"definedBy\":[],\"label\":[\"entity\"]},{\"iri\":\"http://purl.obolibrary.org/obo/BFO_0000003\",\"definedBy\":[],\"label\":[\"occurrent\"]},{\"iri\":\"http://purl.obolibrary.org/obo/BFO_0000015\",\"definedBy\":[],\"label\":[\"process\"]},{\"iri\":\"http://purl.obolibrary.org/obo/DUO_0000037\",\"definedBy\":[\"duo\"],\"label\":[\"biomedical research\"]},{\"iri\":\"http://purl.obolibrary.org/obo/OBI_0000011\",\"definedBy\":[],\"label\":[\"planned process\"]},{\"iri\":\"http://purl.obolibrary.org/obo/OBI_0000066\",\"definedBy\":[],\"label\":[\"investigation\"]}],\"directParent\":[{\"iri\":\"http://purl.obolibrary.org/obo/DUO_0000037\",\"definedBy\":[\"duo\"],\"label\":[\"biomedical research\"]}],\"hierarchicalParent\":[{\"iri\":\"http://purl.obolibrary.org/obo/DUO_0000037\",\"definedBy\":[\"duo\"],\"label\":[\"biomedical research\"]}]},{\"ontologyId\":\"duo\",\"type\":[\"class\",\"entity\"],\"iri\":\"http://purl.obolibrary.org/obo/DUO_0000034\",\"curie\":\"DUO:0000034\",\"label\":[\"age category research\"],\"definition\":[\"An investigation concerning specific age categories.\",\"Should be paired with the an ontology term representing this population (e.g., xxx).\"],\"isObsolete\":false,\"directAncestor\":[{\"iri\":\"http://purl.obolibrary.org/obo/BFO_0000001\",\"definedBy\":[],\"label\":[\"entity\"]},{\"iri\":\"http://purl.obolibrary.org/obo/BFO_0000003\",\"definedBy\":[],\"label\":[\"occurrent\"]},{\"iri\":\"http://purl.obolibrary.org/obo/BFO_0000015\",\"definedBy\":[],\"label\":[\"process\"]},{\"iri\":\"http://purl.obolibrary.org/obo/OBI_0000011\",\"definedBy\":[],\"label\":[\"planned process\"]},{\"iri\":\"http://purl.obolibrary.org/obo/OBI_0000066\",\"definedBy\":[],\"label\":[\"investigation\"]}],\"directParent\":[{\"iri\":\"http://purl.obolibrary.org/obo/OBI_0000066\",\"definedBy\":[],\"label\":[\"investigation\"]}],\"hierarchicalParent\":[{\"iri\":\"http://purl.obolibrary.org/obo/OBI_0000066\",\"definedBy\":[],\"label\":[\"investigation\"]}]}],\"pageNum\":0,\"pageSize\":10,\"totalElements\":25,\"totalPages\":3}",
        "type": "text"
      }
    ]
  }
}